[ 11-11-2009 4:44:33 PM ]
Error: [Wrong data to Paste! Select some valid data]

[ 11-11-2009 4:44:44 PM ]
Error: [Wrong data to Paste! Select some valid data]

[ 11-11-2009 4:44:52 PM ]
Error: [Wrong data to Paste! Select some valid data]

[ 11-11-2009 4:47:44 PM ]
Error: [Wrong data to Paste! Select some valid data]

[ 11-11-2009 4:50:06 PM ]
Error: [Wrong data to Paste! Select some valid data]

[ 11-11-2009 4:50:58 PM ]
Error: [Input string was not in a correct format.]

[ 11-11-2009 4:50:58 PM ]
Error: [Input string was not in a correct format.]

[ 11-11-2009 4:50:58 PM ]
Error: [Input string was not in a correct format.]

[ 11-11-2009 4:50:58 PM ]
Error: [Input string was not in a correct format.]

[ 11-11-2009 4:50:58 PM ]
Error: [Input string was not in a correct format.]

[ 11-11-2009 4:50:58 PM ]
Error: [Input string was not in a correct format.]

[ 11-11-2009 4:50:58 PM ]
Error: [Input string was not in a correct format.]

[ 11-11-2009 4:50:58 PM ]
Error: [Input string was not in a correct format.]

[ 11-11-2009 4:50:58 PM ]
Error: [Input string was not in a correct format.]

[ 11-11-2009 4:50:58 PM ]
Error: [Input string was not in a correct format.]

[ 11-11-2009 4:50:58 PM ]
Error: [Input string was not in a correct format.]

[ 11-11-2009 4:50:58 PM ]
Error: [Input string was not in a correct format.]

